{
    "dev": {
        "aws_region": "sa-east-1",
        "django_settings": "poc-zappa.settings",
        "profile_name": "default",
        "project_name": "poc-zappa",
        "manage_roles": false,
        "role_name": "poc-zappa-dev-ZappaLambdaExecutionRole",
        "role_arn": "arn:aws:iam::841711792952:role/poc-zappa-dev-ZappaLambdaExecutionRole",
        "runtime": "python3.7",
        "s3_bucket": "poc-zappa"
    }
}